{
  "results": [
    {
      "popularity": 484.099,
      "vote_count": 3271,
      "video": false,
      "poster_path": "/udDclJoHjfjb8Ekgsd4FDteOkCU.jpg",
      "id": 475557,
      "adult": false,
      "backdrop_path": "/n6bUvigpRFqSwmPp1m2YADdbRBc.jpg",
      "original_language": "en",
      "original_title": "Movier",
      "genre_ids": [
        80,
        18,
        53
      ],
      "title": "Movier",
      "vote_average": 8.6,
      "overview": "During the 1980s, a failed stand-up comedian is driven insane and turns to a life of crime and chaos in Gotham City while becoming an infamous psychopathic crime figure.",
      "release_date": "2019-10-04"
    },
    {
      "popularity": 188.965,
      "vote_count": 901,
      "video": false,
      "poster_path": "/ePXuKdXZuJx8hHMNr2yM4jY2L7Z.jpg",
      "id": 559969,
      "adult": false,
      "backdrop_path": "/uLXK1LQM28XovWHPao3ViTeggXA.jpg",
      "original_language": "en",
      "original_title": "El Camino: A Breaking Bad Movie",
      "genre_ids": [
        80,
        18,
        53
      ],
      "title": "El Camino: A Breaking Bad Movie",
      "vote_average": 7.2,
      "overview": "In the wake of his dramatic escape from captivity, Jesse Pinkman must come to terms with his past in order to forge some kind of future.",
      "release_date": "2019-10-11"
    },
    {
      "popularity": 160.001,
      "vote_count": 290,
      "video": false,
      "poster_path": "/uTALxjQU8e1lhmNjP9nnJ3t2pRU.jpg",
      "id": 453405,
      "adult": false,
      "backdrop_path": "/c3F4P2oauA7IQmy4hM0OmRt2W7d.jpg",
      "original_language": "en",
      "original_title": "Gemini Man",
      "genre_ids": [
        28,
        53
      ],
      "title": "Gemini Man",
      "vote_average": 5.9,
      "overview": "Henry Brogen, an aging assassin tries to get out of the business but finds himself in the ultimate battle: fighting his own clone who is 25 years younger than him and at the peak of his abilities.",
      "release_date": "2019-10-11"
    },
    {
      "popularity": 139.133,
      "vote_count": 2689,
      "video": false,
      "poster_path": "/w9kR8qbmQ01HwnvK4alvnQ2ca0L.jpg",
      "id": 301528,
      "adult": false,
      "backdrop_path": "/m67smI1IIMmYzCl9axvKNULVKLr.jpg",
      "original_language": "en",
      "original_title": "Toy Story 4",
      "genre_ids": [
        12,
        16,
        35,
        14,
        10751
      ],
      "title": "Toy Story 4",
      "vote_average": 7.6,
      "overview": "Woody has always been confident about his place in the world and that his priority is taking care of his kid, whether that's Andy or Bonnie. But when Bonnie adds a reluctant new toy called \"Forky\" to her room, a road trip adventure alongside old and new friends will show Woody how big the world can be for a toy.",
      "release_date": "2019-06-21"
    },
    {
      "popularity": 128.12,
      "vote_count": 1619,
      "video": false,
      "poster_path": "/zfE0R94v1E8cuKAerbskfD3VfUt.jpg",
      "id": 474350,
      "adult": false,
      "backdrop_path": "/8moTOzunF7p40oR5XhlDvJckOSW.jpg",
      "original_language": "en",
      "original_title": "It Chapter Two",
      "genre_ids": [
        27
      ],
      "title": "It Chapter Two",
      "vote_average": 7,
      "overview": "27 years after overcoming the malevolent supernatural entity Pennywise, the former members of the Losers' Club, who have grown up and moved away from Derry, are brought back together by a devastating phone call.",
      "release_date": "2019-09-06"
    },
    {
      "popularity": 170.265,
      "vote_count": 94,
      "video": false,
      "poster_path": "/tBuabjEqxzoUBHfbyNbd8ulgy5j.jpg",
      "id": 420809,
      "adult": false,
      "backdrop_path": "/HmEXofYSc56wBHIqY6tJDroCSw.jpg",
      "original_language": "en",
      "original_title": "Maleficent: Mistress of Evil",
      "genre_ids": [
        12,
        14,
        10751
      ],
      "title": "Maleficent: Mistress of Evil",
      "vote_average": 7,
      "overview": "Maleficent and her goddaughter Aurora begin to question the complex family ties that bind them as they are pulled in different directions by impending nuptials, unexpected allies, and dark new forces at play.",
      "release_date": "2019-10-18"
    },
    {
      "popularity": 102.978,
      "vote_count": 4,
      "video": false,
      "poster_path": "/mAWBfTDAmfpvQGMVFuzuVl49N1P.jpg",
      "id": 449924,
      "adult": false,
      "backdrop_path": "/ekP6EVxL81lZ4ivcqPsoZ72rY0h.jpg",
      "original_language": "cn",
      "original_title": "葉問4",
      "genre_ids": [
        28,
        18,
        36
      ],
      "title": "Ip Man 4: The Finale",
      "vote_average": 9.3,
      "overview": "Ip Man 4 is an upcoming Hong Kong biographical martial arts film directed by Wilson Yip and produced by Raymond Wong. It is the fourth in the Ip Man film series based on the life of the Wing Chun grandmaster of the same name and features Donnie Yen reprising the role. The film began production in April 2018 and ended in July the same year.",
      "release_date": "2019-10-18"
    },
    {
      "popularity": 94.38,
      "vote_count": 2961,
      "video": false,
      "poster_path": "/ziEuG1essDuWuC5lpWUaw1uXY2O.jpg",
      "id": 458156,
      "adult": false,
      "backdrop_path": "/stemLQMLDrlpfIlZ5OjllOPT8QX.jpg",
      "original_language": "en",
      "original_title": "John Wick: Chapter 3 - Parabellum",
      "genre_ids": [
        28,
        80,
        53
      ],
      "title": "John Wick: Chapter 3 - Parabellum",
      "vote_average": 7.1,
      "overview": "Super-assassin John Wick returns with a $14 million price tag on his head and an army of bounty-hunting killers on his trail. After killing a member of the shadowy international assassin’s guild, the High Table, John Wick is excommunicado, but the world’s most ruthless hit men and women await his every turn.",
      "release_date": "2019-05-17"
    },
    {
      "popularity": 82.562,
      "vote_count": 38,
      "video": false,
      "poster_path": "/pIcV8XXIIvJCbtPoxF9qHMKdRr2.jpg",
      "id": 338967,
      "adult": false,
      "backdrop_path": "/jCCdt0e8Xe9ttvevD4S3TSMNdH.jpg",
      "original_language": "en",
      "original_title": "Zombieland: Double Tap",
      "genre_ids": [
        28,
        35,
        27
      ],
      "title": "Zombieland: Double Tap",
      "vote_average": 7.1,
      "overview": "The group will face a new zombie threat as a new breed of zombie has developed. This new super-zombie type is faster, bigger, and stronger than the previous strain of zombies and harder to kill. These super-zombies have started grouping up into a horde going from city to city leaving a path of destruction behind them.",
      "release_date": "2019-10-18"
    },
    {
      "popularity": 77.891,
      "vote_count": 2357,
      "video": false,
      "poster_path": "/8j58iEBw9pOXFD2L0nt0ZXeHviB.jpg",
      "id": 466272,
      "adult": false,
      "backdrop_path": "/kKTPv9LKKs5L3oO1y5FNObxAPWI.jpg",
      "original_language": "en",
      "original_title": "Once Upon a Time... in Hollywood",
      "genre_ids": [
        35,
        18
      ],
      "title": "Once Upon a Time... in Hollywood",
      "vote_average": 7.6,
      "overview": "A faded television actor and his stunt double strive to achieve fame and success in the film industry during the final years of Hollywood's Golden Age in 1969 Los Angeles.",
      "release_date": "2019-07-26"
    },
    {
      "popularity": 66.448,
      "vote_count": 468,
      "video": false,
      "poster_path": "/kTQ3J8oTTKofAVLYnds2cHUz9KO.jpg",
      "id": 522938,
      "adult": false,
      "backdrop_path": "/spYx9XQFODuqEVoPpvaJI1ksAVt.jpg",
      "original_language": "en",
      "original_title": "Rambo: Last Blood",
      "genre_ids": [
        28,
        53
      ],
      "title": "Rambo: Last Blood",
      "vote_average": 5.9,
      "overview": "When John Rambo's niece travels to Mexico to find the father that abandoned her and her mother, she finds herself in the grasps of Calle Mexican sex traffickers. When she doesn't return home as expected, John learns she's crossed into Mexico and sets out to get her back and make them pay.",
      "release_date": "2019-09-20"
    },
    {
      "popularity": 60.943,
      "vote_count": 39,
      "video": false,
      "poster_path": "/uaXNjRkDdjfxfVuKHo25wkA6CiA.jpg",
      "id": 481084,
      "adult": false,
      "backdrop_path": "/nHZpVTiGLj0GXP3D9bFbmvzw73y.jpg",
      "original_language": "en",
      "original_title": "The Addams Family",
      "genre_ids": [
        16,
        35,
        14,
        27,
        10751
      ],
      "title": "The Addams Family",
      "vote_average": 6.3,
      "overview": "The Addams family's lives begin to unravel when they face-off against a treacherous, greedy crafty reality-TV host while also preparing for their extended family to arrive for a major celebration.",
      "release_date": "2019-10-11"
    },
    {
      "popularity": 66.82,
      "vote_count": 18,
      "video": false,
      "poster_path": "/vS6TCG4HiUSCyX30f5wDGQDt1k3.jpg",
      "id": 428045,
      "adult": false,
      "backdrop_path": "/5yiCqzmxYv36GGdc05egCMHedbX.jpg",
      "original_language": "ru",
      "original_title": "Тайна Печати Дракона",
      "genre_ids": [
        12,
        14
      ],
      "title": "The Mystery of the Dragon’s Seal",
      "vote_average": 5,
      "overview": "The Russian Czar Peter the Great commissions Jonathan Green, an English traveller, to map the Far East territories of the Russian Empire. Green sets off on yet another long journey, full of unbelievable adventures, which eventually leads him to China. On his way, the famous cartographer makes breath-taking discoveries, meets mysterious creatures, Chinese princesses, deadly masters of oriental martial arts, and even Lun Van, the King of Dragons, himself. What could be more perilous than looking into the eyes of Viy? Only meeting him again… What will prevail this time — the unflinching scepticism of the scientist or ancient black magic, which has already gained influence over the Far East Lands?",
      "release_date": "2019-08-16"
    },
    {
      "popularity": 79.008,
      "vote_count": 30,
      "video": false,
      "poster_path": "/4E2lyUGLEr3yH4q6kJxPkQUhX7n.jpg",
      "id": 568012,
      "adult": false,
      "backdrop_path": "/iGnCzXEx0cFlUbpyAMeHwHWhPhx.jpg",
      "original_language": "ja",
      "original_title": "ワンピーススタンピード",
      "genre_ids": [
        28,
        12,
        16
      ],
      "title": "One Piece: Stampede",
      "vote_average": 8.3,
      "overview": "One Piece: Stampede is a stand-alone film that celebrates the anime's 20th Anniversary and takes place outside the canon of the \"One Piece\" TV series. Monkey D. Luffy and his Straw Hat pirate crew are invited to a massive Pirate Festival that brings many of the most iconic characters from throughout the franchise to participate in competition with the Straw Hats to find Roger's treasure. It also pits the Straw Hats against a new enemy named Bullet, a former member of Roger's crew.",
      "release_date": "2019-10-24"
    },
    {
      "popularity": 47.403,
      "vote_count": 501,
      "video": false,
      "poster_path": "/d8u4jpkDKgEPDJUl4g3vOOP3mDe.jpg",
      "id": 484641,
      "adult": false,
      "backdrop_path": "/pIL9e5cN6RNugDCCLwn3stfb9HE.jpg",
      "original_language": "fr",
      "original_title": "Anna",
      "genre_ids": [
        28,
        53
      ],
      "title": "Anna",
      "vote_average": 6.4,
      "overview": "Beneath Anna Poliatova's striking beauty lies a secret that will unleash her indelible strength and skill to become one of the world's most feared government assassins.",
      "release_date": "2019-06-21"
    },
    {
      "popularity": 51.744,
      "vote_count": 0,
      "video": false,
      "poster_path": "/vqzNJRH4YyquRiWxCCOH0aXggHI.jpg",
      "id": 290859,
      "adult": false,
      "backdrop_path": "/2Ti7HDbAU0DrJqDlUf6GnIg7ADt.jpg",
      "original_language": "en",
      "original_title": "Terminator: Dark Fate",
      "genre_ids": [
        28,
        878
      ],
      "title": "Terminator: Dark Fate",
      "vote_average": 0,
      "overview": "More than two decades after the events of Terminator 2: Judgment Day, Sarah Connor sets out to protect a young woman named Dani Ramos and her friends, as a liquid metal Terminator, sent from the future, attempts to terminate them.",
      "release_date": "2019-11-01"
    },
    {
      "popularity": 46.493,
      "vote_count": 19,
      "video": false,
      "poster_path": "/3nk9UoepYmv1G9oP18q6JJCeYwN.jpg",
      "id": 503919,
      "adult": false,
      "backdrop_path": "/5BmcysaAASA00FM0gRjD0ClMUY9.jpg",
      "original_language": "en",
      "original_title": "The Lighthouse",
      "genre_ids": [
        18,
        14,
        27,
        9648
      ],
      "title": "The Lighthouse",
      "vote_average": 8.3,
      "overview": "The hypnotic and hallucinatory tale of two lighthouse keepers on a remote and mysterious New England island in the 1890s.",
      "release_date": "2019-10-18"
    },
    {
      "popularity": 56.24,
      "vote_count": 638,
      "video": false,
      "poster_path": "/9kOtMOUa5HrOiIG2Z9Anv7M8AbY.jpg",
      "id": 511987,
      "adult": false,
      "backdrop_path": "/lm4xH0YwFbVvTgdtau1thNK5S6J.jpg",
      "original_language": "en",
      "original_title": "Crawl",
      "genre_ids": [
        28,
        18,
        27,
        53
      ],
      "title": "Crawl",
      "vote_average": 6.1,
      "overview": "When a huge hurricane hits her hometown in Florida, Haley ignores evacuation orders to look for her father. After finding him badly wounded, both are trapped by the flood. With virtually no time to escape the storm, they discover that rising water levels are the least of their problems.",
      "release_date": "2019-07-12"
    },
    {
      "popularity": 50.856,
      "vote_count": 294,
      "video": false,
      "poster_path": "/zBhv8rsLOfpFW2M5b6wW78Uoojs.jpg",
      "id": 540901,
      "adult": false,
      "backdrop_path": "/5GynP6w2OQWSbKnCLHrBIriF4Cw.jpg",
      "original_language": "en",
      "original_title": "Hustlers",
      "genre_ids": [
        35,
        80,
        18
      ],
      "title": "Hustlers",
      "vote_average": 6.1,
      "overview": "A crew of savvy former strip club employees band together to turn the tables on their Wall Street clients.",
      "release_date": "2019-09-13"
    },
    {
      "popularity": 51.722,
      "vote_count": 193,
      "video": false,
      "poster_path": "/klkFYDZOetegK8floj6IjvbzzQ2.jpg",
      "id": 513045,
      "adult": false,
      "backdrop_path": "/xgfn98c2UzvFWP6MXDzytearmQ3.jpg",
      "original_language": "en",
      "original_title": "Stuber",
      "genre_ids": [
        28,
        35,
        80,
        53
      ],
      "title": "Stuber",
      "vote_average": 6.4,
      "overview": "After crashing his car, a cop who's recovering from eye surgery recruits an Uber driver to help him catch a heroin dealer. The mismatched pair soon find themselves in for a wild day of stakeouts and shootouts as they encounter the city's seedy side.",
      "release_date": "2019-07-12"
    }
  ],
  "page": 1,
  "total_results": 1393,
  "dates": {
    "maximum": "2019-10-24",
    "minimum": "2019-09-06"
  },
  "total_pages": 70
}